{
	"info": {
		"_postman_id": "6e902b49-ff57-4b17-b555-6f54fd280288",
		"name": "GoLangWithMySql",
		"schema": "https://schema.getpostman.com/json/collection/v2.1.0/collection.json",
		"_exporter_id": "14202642"
	},
	"item": [
		{
			"name": "user",
			"item": [
				{
					"name": "register",
					"request": {
						"method": "POST",
						"header": [],
						"body": {
							"mode": "formdata",
							"formdata": [
								{
									"key": "name",
									"value": "soesan",
									"type": "text"
								},
								{
									"key": "email",
									"value": "theinsoesan1@gmail.com",
									"type": "text"
								},
								{
									"key": "password",
									"value": "1234567890",
									"type": "text"
								}
							]
						},
						"url": {
							"raw": "{{host}}/auth/register",
							"host": [
								"{{host}}"
							],
							"path": [
								"auth",
								"register"
							]
						}
					},
					"response": []
				},
				{
					"name": "login",
					"request": {
						"method": "POST",
						"header": [],
						"body": {
							"mode": "formdata",
							"formdata": [
								{
									"key": "name",
									"value": "SoeSan222",
									"type": "text",
									"disabled": true
								},
								{
									"key": "email",
									"value": "theinsoesan3@gmail.com",
									"type": "text"
								},
								{
									"key": "password",
									"value": "1234567890",
									"type": "text"
								}
							]
						},
						"url": {
							"raw": "localhost:8080/api/auth/login",
							"host": [
								"localhost"
							],
							"port": "8080",
							"path": [
								"api",
								"auth",
								"login"
							]
						}
					},
					"response": []
				}
			]
		},
		{
			"name": "post",
			"item": [
				{
					"name": "all",
					"request": {
						"method": "GET",
						"header": [
							{
								"key": "Authorization",
								"value": "eyJhbGciOiJIUzI1NiIsInR5cCI6IkpXVCJ9.eyJ1c2VyX2lkIjoiMSIsImV4cCI6MTY5Mzg5NTkwMSwiaWF0IjoxNjYyMzU5OTAxLCJpc3MiOiJ5ZGhud2IifQ.piJieI8Ak6EG0W1q_RdBCfuWlgf-tcmPEehCgKGx77g",
								"type": "text"
							}
						],
						"url": {
							"raw": "localhost:8080/api/post/",
							"host": [
								"localhost"
							],
							"port": "8080",
							"path": [
								"api",
								"post",
								""
							]
						}
					},
					"response": []
				},
				{
					"name": "delete",
					"request": {
						"method": "DELETE",
						"header": [],
						"url": {
							"raw": "localhost:8080/api/post/5",
							"host": [
								"localhost"
							],
							"port": "8080",
							"path": [
								"api",
								"post",
								"5"
							]
						}
					},
					"response": []
				},
				{
					"name": "update",
					"request": {
						"method": "GET",
						"header": []
					},
					"response": []
				},
				{
					"name": "insert",
					"request": {
						"method": "POST",
						"header": [
							{
								"key": "Authorization",
								"value": "eyJhbGciOiJIUzI1NiIsInR5cCI6IkpXVCJ9.eyJ1c2VyX2lkIjoiNyIsImV4cCI6MTY5Mzg5NzI2NiwiaWF0IjoxNjYyMzYxMjY2LCJpc3MiOiJ5ZGhud2IifQ.W-KaZZQQyUrpNSkmBjBnZTKU7zxSt-7i6slv7YWAvfg",
								"type": "text"
							}
						],
						"body": {
							"mode": "raw",
							"raw": "{\r\n    \"title\":\"Hello05/9/2022\",\r\n    \"description\":\"I am Okay\"\r\n}",
							"options": {
								"raw": {
									"language": "json"
								}
							}
						},
						"url": {
							"raw": "localhost:8080/api/post/",
							"host": [
								"localhost"
							],
							"port": "8080",
							"path": [
								"api",
								"post",
								""
							]
						}
					},
					"response": []
				},
				{
					"name": "localhost:8080/api/post/7",
					"request": {
						"method": "GET",
						"header": [
							{
								"key": "Authorization",
								"value": "eyJhbGciOiJIUzI1NiIsInR5cCI6IkpXVCJ9.eyJ1c2VyX2lkIjoiMSIsImV4cCI6MTY5MzkwMDg4NiwiaWF0IjoxNjYyMzY0ODg2LCJpc3MiOiJ5ZGhud2IifQ.qvI8hqld7P3LX5BaCHJivnzQPaoFaQpPQu_8PUQyh04",
								"type": "text"
							}
						],
						"url": {
							"raw": "localhost:8080/api/post/7",
							"host": [
								"localhost"
							],
							"port": "8080",
							"path": [
								"api",
								"post",
								"7"
							]
						}
					},
					"response": []
				}
			]
		},
		{
			"name": "Profile",
			"item": [
				{
					"name": "localhost:8080/api/user",
					"request": {
						"method": "GET",
						"header": [],
						"url": {
							"raw": "localhost:8080/api/user",
							"host": [
								"localhost"
							],
							"port": "8080",
							"path": [
								"api",
								"user"
							]
						}
					},
					"response": []
				},
				{
					"name": "localhost:8080/api/user/profile?",
					"request": {
						"method": "PUT",
						"header": [
							{
								"key": "Authorization",
								"value": "eyJhbGciOiJIUzI1NiIsInR5cCI6IkpXVCJ9.eyJ1c2VyX2lkIjoiMSIsImV4cCI6MTY5MzkwMDMxMSwiaWF0IjoxNjYyMzY0MzExLCJpc3MiOiJ5ZGhud2IifQ.Jm6ekyFBw-dcz7QmRPg5gcCdQe0Cb7o2NAwuvSoMta4",
								"type": "text"
							}
						],
						"body": {
							"mode": "raw",
							"raw": "{\r\n    \"name\":\"soesan\",\r\n    \"email\":\"theinsoesan10@gmail.com\"\r\n}",
							"options": {
								"raw": {
									"language": "json"
								}
							}
						},
						"url": {
							"raw": "localhost:8080/api/user/profile?",
							"host": [
								"localhost"
							],
							"port": "8080",
							"path": [
								"api",
								"user",
								"profile"
							],
							"query": [
								{
									"key": "",
									"value": null
								}
							]
						}
					},
					"response": []
				}
			]
		}
	],
	"event": [
		{
			"listen": "prerequest",
			"script": {
				"type": "text/javascript",
				"exec": [
					""
				]
			}
		},
		{
			"listen": "test",
			"script": {
				"type": "text/javascript",
				"exec": [
					""
				]
			}
		}
	],
	"variable": [
		{
			"key": "host",
			"value": "localhost:8080/api",
			"type": "string"
		}
	]
}